<svg width="270" height="241" viewBox="0 0 270 241" fill="none"
xmlns="http://www.w3.org/2000/svg">
<g opacity="0.1">
<circle cx="265" cy="5" r="5" transform="rotate(90 265 5)" fill="#D2D2F2" />
<circle cx="265" cy="5" r="5" transform="rotate(90 265 5)" fill="#D2D2F2" />
<circle cx="265" cy="26" r="5" transform="rotate(90 265 26)" fill="#D2D2F2" />
<circle cx="265" cy="26" r="5" transform="rotate(90 265 26)" fill="#D2D2F2" />
<circle cx="265" cy="47" r="5" transform="rotate(90 265 47)" fill="#D2D2F2" />
<circle cx="265" cy="47" r="5" transform="rotate(90 265 47)" fill="#D2D2F2" />
<circle cx="265" cy="68" r="5" transform="rotate(90 265 68)" fill="#D2D2F2" />
<circle cx="265" cy="68" r="5" transform="rotate(90 265 68)" fill="#D2D2F2" />
<circle cx="265" cy="89" r="5" transform="rotate(90 265 89)" fill="#D2D2F2" />
<circle cx="265" cy="89" r="5" transform="rotate(90 265 89)" fill="#D2D2F2" />
<circle cx="265" cy="110" r="5" transform="rotate(90 265 110)" fill="#D2D2F2" />
<circle cx="265" cy="110" r="5" transform="rotate(90 265 110)" fill="#D2D2F2" />
<circle cx="265" cy="131" r="5" transform="rotate(90 265 131)" fill="#D2D2F2" />
<circle cx="265" cy="131" r="5" transform="rotate(90 265 131)" fill="#D2D2F2" />
<circle cx="265" cy="152" r="5" transform="rotate(90 265 152)" fill="#D2D2F2" />
<circle cx="265" cy="152" r="5" transform="rotate(90 265 152)" fill="#D2D2F2" />
<circle cx="265" cy="173" r="5" transform="rotate(90 265 173)" fill="#D2D2F2" />
<circle cx="265" cy="173" r="5" transform="rotate(90 265 173)" fill="#D2D2F2" />
<circle cx="265" cy="194" r="5" transform="rotate(90 265 194)" fill="#D2D2F2" />
<circle cx="265" cy="194" r="5" transform="rotate(90 265 194)" fill="#D2D2F2" />
<circle cx="265" cy="215" r="5" transform="rotate(90 265 215)" fill="#D2D2F2" />
<circle cx="265" cy="215" r="5" transform="rotate(90 265 215)" fill="#D2D2F2" />
<circle cx="265" cy="236" r="5" transform="rotate(90 265 236)" fill="#D2D2F2" />
<circle cx="265" cy="236" r="5" transform="rotate(90 265 236)" fill="#D2D2F2" />
<circle cx="245" cy="5" r="5" transform="rotate(90 245 5)" fill="#D2D2F2" />
<circle cx="245" cy="5" r="5" transform="rotate(90 245 5)" fill="#D2D2F2" />
<circle cx="245" cy="26" r="5" transform="rotate(90 245 26)" fill="#D2D2F2" />
<circle cx="245" cy="26" r="5" transform="rotate(90 245 26)" fill="#D2D2F2" />
<circle cx="245" cy="47" r="5" transform="rotate(90 245 47)" fill="#D2D2F2" />
<circle cx="245" cy="47" r="5" transform="rotate(90 245 47)" fill="#D2D2F2" />
<circle cx="245" cy="68" r="5" transform="rotate(90 245 68)" fill="#D2D2F2" />
<circle cx="245" cy="68" r="5" transform="rotate(90 245 68)" fill="#D2D2F2" />
<circle cx="245" cy="89" r="5" transform="rotate(90 245 89)" fill="#D2D2F2" />
<circle cx="245" cy="89" r="5" transform="rotate(90 245 89)" fill="#D2D2F2" />
<circle cx="245" cy="110" r="5" transform="rotate(90 245 110)" fill="#D2D2F2" />
<circle cx="245" cy="110" r="5" transform="rotate(90 245 110)" fill="#D2D2F2" />
<circle cx="245" cy="131" r="5" transform="rotate(90 245 131)" fill="#D2D2F2" />
<circle cx="245" cy="131" r="5" transform="rotate(90 245 131)" fill="#D2D2F2" />
<circle cx="245" cy="152" r="5" transform="rotate(90 245 152)" fill="#D2D2F2" />
<circle cx="245" cy="152" r="5" transform="rotate(90 245 152)" fill="#D2D2F2" />
<circle cx="245" cy="173" r="5" transform="rotate(90 245 173)" fill="#D2D2F2" />
<circle cx="245" cy="173" r="5" transform="rotate(90 245 173)" fill="#D2D2F2" />
<circle cx="245" cy="194" r="5" transform="rotate(90 245 194)" fill="#D2D2F2" />
<circle cx="245" cy="194" r="5" transform="rotate(90 245 194)" fill="#D2D2F2" />
<circle cx="245" cy="215" r="5" transform="rotate(90 245 215)" fill="#D2D2F2" />
<circle cx="245" cy="215" r="5" transform="rotate(90 245 215)" fill="#D2D2F2" />
<circle cx="245" cy="236" r="5" transform="rotate(90 245 236)" fill="#D2D2F2" />
<circle cx="245" cy="236" r="5" transform="rotate(90 245 236)" fill="#D2D2F2" />
<circle cx="225" cy="5" r="5" transform="rotate(90 225 5)" fill="#D2D2F2" />
<circle cx="225" cy="5" r="5" transform="rotate(90 225 5)" fill="#D2D2F2" />
<circle cx="225" cy="26" r="5" transform="rotate(90 225 26)" fill="#D2D2F2" />
<circle cx="225" cy="26" r="5" transform="rotate(90 225 26)" fill="#D2D2F2" />
<circle cx="225" cy="47" r="5" transform="rotate(90 225 47)" fill="#D2D2F2" />
<circle cx="225" cy="47" r="5" transform="rotate(90 225 47)" fill="#D2D2F2" />
<circle cx="225" cy="68" r="5" transform="rotate(90 225 68)" fill="#D2D2F2" />
<circle cx="225" cy="68" r="5" transform="rotate(90 225 68)" fill="#D2D2F2" />
<circle cx="225" cy="89" r="5" transform="rotate(90 225 89)" fill="#D2D2F2" />
<circle cx="225" cy="89" r="5" transform="rotate(90 225 89)" fill="#D2D2F2" />
<circle cx="225" cy="110" r="5" transform="rotate(90 225 110)" fill="#D2D2F2" />
<circle cx="225" cy="110" r="5" transform="rotate(90 225 110)" fill="#D2D2F2" />
<circle cx="225" cy="131" r="5" transform="rotate(90 225 131)" fill="#D2D2F2" />
<circle cx="225" cy="131" r="5" transform="rotate(90 225 131)" fill="#D2D2F2" />
<circle cx="225" cy="152" r="5" transform="rotate(90 225 152)" fill="#D2D2F2" />
<circle cx="225" cy="152" r="5" transform="rotate(90 225 152)" fill="#D2D2F2" />
<circle cx="225" cy="173" r="5" transform="rotate(90 225 173)" fill="#D2D2F2" />
<circle cx="225" cy="173" r="5" transform="rotate(90 225 173)" fill="#D2D2F2" />
<circle cx="225" cy="194" r="5" transform="rotate(90 225 194)" fill="#D2D2F2" />
<circle cx="225" cy="194" r="5" transform="rotate(90 225 194)" fill="#D2D2F2" />
<circle cx="225" cy="215" r="5" transform="rotate(90 225 215)" fill="#D2D2F2" />
<circle cx="225" cy="215" r="5" transform="rotate(90 225 215)" fill="#D2D2F2" />
<circle cx="225" cy="236" r="5" transform="rotate(90 225 236)" fill="#D2D2F2" />
<circle cx="225" cy="236" r="5" transform="rotate(90 225 236)" fill="#D2D2F2" />
<circle cx="205" cy="5" r="5" transform="rotate(90 205 5)" fill="#D2D2F2" />
<circle cx="205" cy="5" r="5" transform="rotate(90 205 5)" fill="#D2D2F2" />
<circle cx="205" cy="26" r="5" transform="rotate(90 205 26)" fill="#D2D2F2" />
<circle cx="205" cy="26" r="5" transform="rotate(90 205 26)" fill="#D2D2F2" />
<circle cx="205" cy="47" r="5" transform="rotate(90 205 47)" fill="#D2D2F2" />
<circle cx="205" cy="47" r="5" transform="rotate(90 205 47)" fill="#D2D2F2" />
<circle cx="205" cy="68" r="5" transform="rotate(90 205 68)" fill="#D2D2F2" />
<circle cx="205" cy="68" r="5" transform="rotate(90 205 68)" fill="#D2D2F2" />
<circle cx="205" cy="89" r="5" transform="rotate(90 205 89)" fill="#D2D2F2" />
<circle cx="205" cy="89" r="5" transform="rotate(90 205 89)" fill="#D2D2F2" />
<circle cx="205" cy="110" r="5" transform="rotate(90 205 110)" fill="#D2D2F2" />
<circle cx="205" cy="110" r="5" transform="rotate(90 205 110)" fill="#D2D2F2" />
<circle cx="205" cy="131" r="5" transform="rotate(90 205 131)" fill="#D2D2F2" />
<circle cx="205" cy="131" r="5" transform="rotate(90 205 131)" fill="#D2D2F2" />
<circle cx="205" cy="152" r="5" transform="rotate(90 205 152)" fill="#D2D2F2" />
<circle cx="205" cy="152" r="5" transform="rotate(90 205 152)" fill="#D2D2F2" />
<circle cx="205" cy="173" r="5" transform="rotate(90 205 173)" fill="#D2D2F2" />
<circle cx="205" cy="173" r="5" transform="rotate(90 205 173)" fill="#D2D2F2" />
<circle cx="205" cy="194" r="5" transform="rotate(90 205 194)" fill="#D2D2F2" />
<circle cx="205" cy="194" r="5" transform="rotate(90 205 194)" fill="#D2D2F2" />
<circle cx="205" cy="215" r="5" transform="rotate(90 205 215)" fill="#D2D2F2" />
<circle cx="205" cy="215" r="5" transform="rotate(90 205 215)" fill="#D2D2F2" />
<circle cx="205" cy="236" r="5" transform="rotate(90 205 236)" fill="#D2D2F2" />
<circle cx="205" cy="236" r="5" transform="rotate(90 205 236)" fill="#D2D2F2" />
<circle cx="185" cy="5" r="5" transform="rotate(90 185 5)" fill="#D2D2F2" />
<circle cx="185" cy="5" r="5" transform="rotate(90 185 5)" fill="#D2D2F2" />
<circle cx="185" cy="26" r="5" transform="rotate(90 185 26)" fill="#D2D2F2" />
<circle cx="185" cy="26" r="5" transform="rotate(90 185 26)" fill="#D2D2F2" />
<circle cx="185" cy="47" r="5" transform="rotate(90 185 47)" fill="#D2D2F2" />
<circle cx="185" cy="47" r="5" transform="rotate(90 185 47)" fill="#D2D2F2" />
<circle cx="185" cy="68" r="5" transform="rotate(90 185 68)" fill="#D2D2F2" />
<circle cx="185" cy="68" r="5" transform="rotate(90 185 68)" fill="#D2D2F2" />
<circle cx="185" cy="89" r="5" transform="rotate(90 185 89)" fill="#D2D2F2" />
<circle cx="185" cy="89" r="5" transform="rotate(90 185 89)" fill="#D2D2F2" />
<circle cx="185" cy="110" r="5" transform="rotate(90 185 110)" fill="#D2D2F2" />
<circle cx="185" cy="110" r="5" transform="rotate(90 185 110)" fill="#D2D2F2" />
<circle cx="185" cy="131" r="5" transform="rotate(90 185 131)" fill="#D2D2F2" />
<circle cx="185" cy="131" r="5" transform="rotate(90 185 131)" fill="#D2D2F2" />
<circle cx="185" cy="152" r="5" transform="rotate(90 185 152)" fill="#D2D2F2" />
<circle cx="185" cy="152" r="5" transform="rotate(90 185 152)" fill="#D2D2F2" />
<circle cx="185" cy="173" r="5" transform="rotate(90 185 173)" fill="#D2D2F2" />
<circle cx="185" cy="173" r="5" transform="rotate(90 185 173)" fill="#D2D2F2" />
<circle cx="185" cy="194" r="5" transform="rotate(90 185 194)" fill="#D2D2F2" />
<circle cx="185" cy="194" r="5" transform="rotate(90 185 194)" fill="#D2D2F2" />
<circle cx="185" cy="215" r="5" transform="rotate(90 185 215)" fill="#D2D2F2" />
<circle cx="185" cy="215" r="5" transform="rotate(90 185 215)" fill="#D2D2F2" />
<circle cx="185" cy="236" r="5" transform="rotate(90 185 236)" fill="#D2D2F2" />
<circle cx="185" cy="236" r="5" transform="rotate(90 185 236)" fill="#D2D2F2" />
<circle cx="165" cy="5" r="5" transform="rotate(90 165 5)" fill="#D2D2F2" />
<circle cx="165" cy="5" r="5" transform="rotate(90 165 5)" fill="#D2D2F2" />
<circle cx="165" cy="26" r="5" transform="rotate(90 165 26)" fill="#D2D2F2" />
<circle cx="165" cy="26" r="5" transform="rotate(90 165 26)" fill="#D2D2F2" />
<circle cx="165" cy="47" r="5" transform="rotate(90 165 47)" fill="#D2D2F2" />
<circle cx="165" cy="47" r="5" transform="rotate(90 165 47)" fill="#D2D2F2" />
<circle cx="165" cy="68" r="5" transform="rotate(90 165 68)" fill="#D2D2F2" />
<circle cx="165" cy="68" r="5" transform="rotate(90 165 68)" fill="#D2D2F2" />
<circle cx="165" cy="89" r="5" transform="rotate(90 165 89)" fill="#D2D2F2" />
<circle cx="165" cy="89" r="5" transform="rotate(90 165 89)" fill="#D2D2F2" />
<circle cx="165" cy="110" r="5" transform="rotate(90 165 110)" fill="#D2D2F2" />
<circle cx="165" cy="110" r="5" transform="rotate(90 165 110)" fill="#D2D2F2" />
<circle cx="165" cy="131" r="5" transform="rotate(90 165 131)" fill="#D2D2F2" />
<circle cx="165" cy="131" r="5" transform="rotate(90 165 131)" fill="#D2D2F2" />
<circle cx="165" cy="152" r="5" transform="rotate(90 165 152)" fill="#D2D2F2" />
<circle cx="165" cy="152" r="5" transform="rotate(90 165 152)" fill="#D2D2F2" />
<circle cx="165" cy="173" r="5" transform="rotate(90 165 173)" fill="#D2D2F2" />
<circle cx="165" cy="173" r="5" transform="rotate(90 165 173)" fill="#D2D2F2" />
<circle cx="165" cy="194" r="5" transform="rotate(90 165 194)" fill="#D2D2F2" />
<circle cx="165" cy="194" r="5" transform="rotate(90 165 194)" fill="#D2D2F2" />
<circle cx="165" cy="215" r="5" transform="rotate(90 165 215)" fill="#D2D2F2" />
<circle cx="165" cy="215" r="5" transform="rotate(90 165 215)" fill="#D2D2F2" />
<circle cx="165" cy="236" r="5" transform="rotate(90 165 236)" fill="#D2D2F2" />
<circle cx="165" cy="236" r="5" transform="rotate(90 165 236)" fill="#D2D2F2" />
<circle cx="145" cy="5" r="5" transform="rotate(90 145 5)" fill="#D2D2F2" />
<circle cx="145" cy="5" r="5" transform="rotate(90 145 5)" fill="#D2D2F2" />
<circle cx="145" cy="26" r="5" transform="rotate(90 145 26)" fill="#D2D2F2" />
<circle cx="145" cy="26" r="5" transform="rotate(90 145 26)" fill="#D2D2F2" />
<circle cx="145" cy="47" r="5" transform="rotate(90 145 47)" fill="#D2D2F2" />
<circle cx="145" cy="47" r="5" transform="rotate(90 145 47)" fill="#D2D2F2" />
<circle cx="145" cy="68" r="5" transform="rotate(90 145 68)" fill="#D2D2F2" />
<circle cx="145" cy="68" r="5" transform="rotate(90 145 68)" fill="#D2D2F2" />
<circle cx="145" cy="89" r="5" transform="rotate(90 145 89)" fill="#D2D2F2" />
<circle cx="145" cy="89" r="5" transform="rotate(90 145 89)" fill="#D2D2F2" />
<circle cx="145" cy="110" r="5" transform="rotate(90 145 110)" fill="#D2D2F2" />
<circle cx="145" cy="110" r="5" transform="rotate(90 145 110)" fill="#D2D2F2" />
<circle cx="145" cy="131" r="5" transform="rotate(90 145 131)" fill="#D2D2F2" />
<circle cx="145" cy="131" r="5" transform="rotate(90 145 131)" fill="#D2D2F2" />
<circle cx="145" cy="152" r="5" transform="rotate(90 145 152)" fill="#D2D2F2" />
<circle cx="145" cy="152" r="5" transform="rotate(90 145 152)" fill="#D2D2F2" />
<circle cx="145" cy="173" r="5" transform="rotate(90 145 173)" fill="#D2D2F2" />
<circle cx="145" cy="173" r="5" transform="rotate(90 145 173)" fill="#D2D2F2" />
<circle cx="145" cy="194" r="5" transform="rotate(90 145 194)" fill="#D2D2F2" />
<circle cx="145" cy="194" r="5" transform="rotate(90 145 194)" fill="#D2D2F2" />
<circle cx="145" cy="215" r="5" transform="rotate(90 145 215)" fill="#D2D2F2" />
<circle cx="145" cy="215" r="5" transform="rotate(90 145 215)" fill="#D2D2F2" />
<circle cx="145" cy="236" r="5" transform="rotate(90 145 236)" fill="#D2D2F2" />
<circle cx="145" cy="236" r="5" transform="rotate(90 145 236)" fill="#D2D2F2" />
<circle cx="125" cy="5" r="5" transform="rotate(90 125 5)" fill="#D2D2F2" />
<circle cx="125" cy="5" r="5" transform="rotate(90 125 5)" fill="#D2D2F2" />
<circle cx="125" cy="26" r="5" transform="rotate(90 125 26)" fill="#D2D2F2" />
<circle cx="125" cy="26" r="5" transform="rotate(90 125 26)" fill="#D2D2F2" />
<circle cx="125" cy="47" r="5" transform="rotate(90 125 47)" fill="#D2D2F2" />
<circle cx="125" cy="47" r="5" transform="rotate(90 125 47)" fill="#D2D2F2" />
<circle cx="125" cy="68" r="5" transform="rotate(90 125 68)" fill="#D2D2F2" />
<circle cx="125" cy="68" r="5" transform="rotate(90 125 68)" fill="#D2D2F2" />
<circle cx="125" cy="89" r="5" transform="rotate(90 125 89)" fill="#D2D2F2" />
<circle cx="125" cy="89" r="5" transform="rotate(90 125 89)" fill="#D2D2F2" />
<circle cx="125" cy="110" r="5" transform="rotate(90 125 110)" fill="#D2D2F2" />
<circle cx="125" cy="110" r="5" transform="rotate(90 125 110)" fill="#D2D2F2" />
<circle cx="125" cy="131" r="5" transform="rotate(90 125 131)" fill="#D2D2F2" />
<circle cx="125" cy="131" r="5" transform="rotate(90 125 131)" fill="#D2D2F2" />
<circle cx="125" cy="152" r="5" transform="rotate(90 125 152)" fill="#D2D2F2" />
<circle cx="125" cy="152" r="5" transform="rotate(90 125 152)" fill="#D2D2F2" />
<circle cx="125" cy="173" r="5" transform="rotate(90 125 173)" fill="#D2D2F2" />
<circle cx="125" cy="173" r="5" transform="rotate(90 125 173)" fill="#D2D2F2" />
<circle cx="125" cy="194" r="5" transform="rotate(90 125 194)" fill="#D2D2F2" />
<circle cx="125" cy="194" r="5" transform="rotate(90 125 194)" fill="#D2D2F2" />
<circle cx="125" cy="215" r="5" transform="rotate(90 125 215)" fill="#D2D2F2" />
<circle cx="125" cy="215" r="5" transform="rotate(90 125 215)" fill="#D2D2F2" />
<circle cx="125" cy="236" r="5" transform="rotate(90 125 236)" fill="#D2D2F2" />
<circle cx="125" cy="236" r="5" transform="rotate(90 125 236)" fill="#D2D2F2" />
<circle cx="105" cy="5" r="5" transform="rotate(90 105 5)" fill="#D2D2F2" />
<circle cx="105" cy="5" r="5" transform="rotate(90 105 5)" fill="#D2D2F2" />
<circle cx="105" cy="26" r="5" transform="rotate(90 105 26)" fill="#D2D2F2" />
<circle cx="105" cy="26" r="5" transform="rotate(90 105 26)" fill="#D2D2F2" />
<circle cx="105" cy="47" r="5" transform="rotate(90 105 47)" fill="#D2D2F2" />
<circle cx="105" cy="47" r="5" transform="rotate(90 105 47)" fill="#D2D2F2" />
<circle cx="105" cy="68" r="5" transform="rotate(90 105 68)" fill="#D2D2F2" />
<circle cx="105" cy="68" r="5" transform="rotate(90 105 68)" fill="#D2D2F2" />
<circle cx="105" cy="89" r="5" transform="rotate(90 105 89)" fill="#D2D2F2" />
<circle cx="105" cy="89" r="5" transform="rotate(90 105 89)" fill="#D2D2F2" />
<circle cx="105" cy="110" r="5" transform="rotate(90 105 110)" fill="#D2D2F2" />
<circle cx="105" cy="110" r="5" transform="rotate(90 105 110)" fill="#D2D2F2" />
<circle cx="105" cy="131" r="5" transform="rotate(90 105 131)" fill="#D2D2F2" />
<circle cx="105" cy="131" r="5" transform="rotate(90 105 131)" fill="#D2D2F2" />
<circle cx="105" cy="152" r="5" transform="rotate(90 105 152)" fill="#D2D2F2" />
<circle cx="105" cy="152" r="5" transform="rotate(90 105 152)" fill="#D2D2F2" />
<circle cx="105" cy="173" r="5" transform="rotate(90 105 173)" fill="#D2D2F2" />
<circle cx="105" cy="173" r="5" transform="rotate(90 105 173)" fill="#D2D2F2" />
<circle cx="105" cy="194" r="5" transform="rotate(90 105 194)" fill="#D2D2F2" />
<circle cx="105" cy="194" r="5" transform="rotate(90 105 194)" fill="#D2D2F2" />
<circle cx="105" cy="215" r="5" transform="rotate(90 105 215)" fill="#D2D2F2" />
<circle cx="105" cy="215" r="5" transform="rotate(90 105 215)" fill="#D2D2F2" />
<circle cx="105" cy="236" r="5" transform="rotate(90 105 236)" fill="#D2D2F2" />
<circle cx="105" cy="236" r="5" transform="rotate(90 105 236)" fill="#D2D2F2" />
<circle cx="84.9998" cy="5" r="5" transform="rotate(90 84.9998 5)" fill="#D2D2F2" />
<circle cx="84.9998" cy="5" r="5" transform="rotate(90 84.9998 5)" fill="#D2D2F2" />
<circle cx="84.9998" cy="26" r="5" transform="rotate(90 84.9998 26)" fill="#D2D2F2" />
<circle cx="84.9998" cy="26" r="5" transform="rotate(90 84.9998 26)" fill="#D2D2F2" />
<circle cx="84.9998" cy="47" r="5" transform="rotate(90 84.9998 47)" fill="#D2D2F2" />
<circle cx="84.9998" cy="47" r="5" transform="rotate(90 84.9998 47)" fill="#D2D2F2" />
<circle cx="84.9998" cy="68" r="5" transform="rotate(90 84.9998 68)" fill="#D2D2F2" />
<circle cx="84.9998" cy="68" r="5" transform="rotate(90 84.9998 68)" fill="#D2D2F2" />
<circle cx="84.9998" cy="89" r="5" transform="rotate(90 84.9998 89)" fill="#D2D2F2" />
<circle cx="84.9998" cy="89" r="5" transform="rotate(90 84.9998 89)" fill="#D2D2F2" />
<circle cx="84.9998" cy="110" r="5" transform="rotate(90 84.9998 110)" fill="#D2D2F2" />
<circle cx="84.9998" cy="110" r="5" transform="rotate(90 84.9998 110)" fill="#D2D2F2" />
<circle cx="84.9998" cy="131" r="5" transform="rotate(90 84.9998 131)" fill="#D2D2F2" />
<circle cx="84.9998" cy="131" r="5" transform="rotate(90 84.9998 131)" fill="#D2D2F2" />
<circle cx="84.9998" cy="152" r="5" transform="rotate(90 84.9998 152)" fill="#D2D2F2" />
<circle cx="84.9998" cy="152" r="5" transform="rotate(90 84.9998 152)" fill="#D2D2F2" />
<circle cx="84.9998" cy="173" r="5" transform="rotate(90 84.9998 173)" fill="#D2D2F2" />
<circle cx="84.9998" cy="173" r="5" transform="rotate(90 84.9998 173)" fill="#D2D2F2" />
<circle cx="84.9998" cy="194" r="5" transform="rotate(90 84.9998 194)" fill="#D2D2F2" />
<circle cx="84.9998" cy="194" r="5" transform="rotate(90 84.9998 194)" fill="#D2D2F2" />
<circle cx="84.9998" cy="215" r="5" transform="rotate(90 84.9998 215)" fill="#D2D2F2" />
<circle cx="84.9998" cy="215" r="5" transform="rotate(90 84.9998 215)" fill="#D2D2F2" />
<circle cx="84.9998" cy="236" r="5" transform="rotate(90 84.9998 236)" fill="#D2D2F2" />
<circle cx="84.9998" cy="236" r="5" transform="rotate(90 84.9998 236)" fill="#D2D2F2" />
<circle cx="64.9998" cy="5" r="5" transform="rotate(90 64.9998 5)" fill="#D2D2F2" />
<circle cx="64.9998" cy="5" r="5" transform="rotate(90 64.9998 5)" fill="#D2D2F2" />
<circle cx="64.9998" cy="26" r="5" transform="rotate(90 64.9998 26)" fill="#D2D2F2" />
<circle cx="64.9998" cy="26" r="5" transform="rotate(90 64.9998 26)" fill="#D2D2F2" />
<circle cx="64.9998" cy="47" r="5" transform="rotate(90 64.9998 47)" fill="#D2D2F2" />
<circle cx="64.9998" cy="47" r="5" transform="rotate(90 64.9998 47)" fill="#D2D2F2" />
<circle cx="64.9998" cy="68" r="5" transform="rotate(90 64.9998 68)" fill="#D2D2F2" />
<circle cx="64.9998" cy="68" r="5" transform="rotate(90 64.9998 68)" fill="#D2D2F2" />
<circle cx="64.9998" cy="89" r="5" transform="rotate(90 64.9998 89)" fill="#D2D2F2" />
<circle cx="64.9998" cy="89" r="5" transform="rotate(90 64.9998 89)" fill="#D2D2F2" />
<circle cx="64.9998" cy="110" r="5" transform="rotate(90 64.9998 110)" fill="#D2D2F2" />
<circle cx="64.9998" cy="110" r="5" transform="rotate(90 64.9998 110)" fill="#D2D2F2" />
<circle cx="64.9998" cy="131" r="5" transform="rotate(90 64.9998 131)" fill="#D2D2F2" />
<circle cx="64.9998" cy="131" r="5" transform="rotate(90 64.9998 131)" fill="#D2D2F2" />
<circle cx="64.9998" cy="152" r="5" transform="rotate(90 64.9998 152)" fill="#D2D2F2" />
<circle cx="64.9998" cy="152" r="5" transform="rotate(90 64.9998 152)" fill="#D2D2F2" />
<circle cx="64.9998" cy="173" r="5" transform="rotate(90 64.9998 173)" fill="#D2D2F2" />
<circle cx="64.9998" cy="173" r="5" transform="rotate(90 64.9998 173)" fill="#D2D2F2" />
<circle cx="64.9998" cy="194" r="5" transform="rotate(90 64.9998 194)" fill="#D2D2F2" />
<circle cx="64.9998" cy="194" r="5" transform="rotate(90 64.9998 194)" fill="#D2D2F2" />
<circle cx="64.9998" cy="215" r="5" transform="rotate(90 64.9998 215)" fill="#D2D2F2" />
<circle cx="64.9998" cy="215" r="5" transform="rotate(90 64.9998 215)" fill="#D2D2F2" />
<circle cx="64.9998" cy="236" r="5" transform="rotate(90 64.9998 236)" fill="#D2D2F2" />
<circle cx="64.9998" cy="236" r="5" transform="rotate(90 64.9998 236)" fill="#D2D2F2" />
<circle cx="44.9998" cy="5" r="5" transform="rotate(90 44.9998 5)" fill="#D2D2F2" />
<circle cx="44.9998" cy="5" r="5" transform="rotate(90 44.9998 5)" fill="#D2D2F2" />
<circle cx="44.9998" cy="26" r="5" transform="rotate(90 44.9998 26)" fill="#D2D2F2" />
<circle cx="44.9998" cy="26" r="5" transform="rotate(90 44.9998 26)" fill="#D2D2F2" />
<circle cx="44.9998" cy="47" r="5" transform="rotate(90 44.9998 47)" fill="#D2D2F2" />
<circle cx="44.9998" cy="47" r="5" transform="rotate(90 44.9998 47)" fill="#D2D2F2" />
<circle cx="44.9998" cy="68" r="5" transform="rotate(90 44.9998 68)" fill="#D2D2F2" />
<circle cx="44.9998" cy="68" r="5" transform="rotate(90 44.9998 68)" fill="#D2D2F2" />
<circle cx="44.9998" cy="89" r="5" transform="rotate(90 44.9998 89)" fill="#D2D2F2" />
<circle cx="44.9998" cy="89" r="5" transform="rotate(90 44.9998 89)" fill="#D2D2F2" />
<circle cx="44.9998" cy="110" r="5" transform="rotate(90 44.9998 110)" fill="#D2D2F2" />
<circle cx="44.9998" cy="110" r="5" transform="rotate(90 44.9998 110)" fill="#D2D2F2" />
<circle cx="44.9998" cy="131" r="5" transform="rotate(90 44.9998 131)" fill="#D2D2F2" />
<circle cx="44.9998" cy="131" r="5" transform="rotate(90 44.9998 131)" fill="#D2D2F2" />
<circle cx="44.9998" cy="152" r="5" transform="rotate(90 44.9998 152)" fill="#D2D2F2" />
<circle cx="44.9998" cy="152" r="5" transform="rotate(90 44.9998 152)" fill="#D2D2F2" />
<circle cx="44.9998" cy="173" r="5" transform="rotate(90 44.9998 173)" fill="#D2D2F2" />
<circle cx="44.9998" cy="173" r="5" transform="rotate(90 44.9998 173)" fill="#D2D2F2" />
<circle cx="44.9998" cy="194" r="5" transform="rotate(90 44.9998 194)" fill="#D2D2F2" />
<circle cx="44.9998" cy="194" r="5" transform="rotate(90 44.9998 194)" fill="#D2D2F2" />
<circle cx="44.9998" cy="215" r="5" transform="rotate(90 44.9998 215)" fill="#D2D2F2" />
<circle cx="44.9998" cy="215" r="5" transform="rotate(90 44.9998 215)" fill="#D2D2F2" />
<circle cx="44.9998" cy="236" r="5" transform="rotate(90 44.9998 236)" fill="#D2D2F2" />
<circle cx="44.9998" cy="236" r="5" transform="rotate(90 44.9998 236)" fill="#D2D2F2" />
<circle cx="24.9998" cy="5" r="5" transform="rotate(90 24.9998 5)" fill="#D2D2F2" />
<circle cx="24.9998" cy="5" r="5" transform="rotate(90 24.9998 5)" fill="#D2D2F2" />
<circle cx="24.9998" cy="26" r="5" transform="rotate(90 24.9998 26)" fill="#D2D2F2" />
<circle cx="24.9998" cy="26" r="5" transform="rotate(90 24.9998 26)" fill="#D2D2F2" />
<circle cx="24.9998" cy="47" r="5" transform="rotate(90 24.9998 47)" fill="#D2D2F2" />
<circle cx="24.9998" cy="47" r="5" transform="rotate(90 24.9998 47)" fill="#D2D2F2" />
<circle cx="24.9998" cy="68" r="5" transform="rotate(90 24.9998 68)" fill="#D2D2F2" />
<circle cx="24.9998" cy="68" r="5" transform="rotate(90 24.9998 68)" fill="#D2D2F2" />
<circle cx="24.9998" cy="89" r="5" transform="rotate(90 24.9998 89)" fill="#D2D2F2" />
<circle cx="24.9998" cy="89" r="5" transform="rotate(90 24.9998 89)" fill="#D2D2F2" />
<circle cx="24.9998" cy="110" r="5" transform="rotate(90 24.9998 110)" fill="#D2D2F2" />
<circle cx="24.9998" cy="110" r="5" transform="rotate(90 24.9998 110)" fill="#D2D2F2" />
<circle cx="24.9998" cy="131" r="5" transform="rotate(90 24.9998 131)" fill="#D2D2F2" />
<circle cx="24.9998" cy="131" r="5" transform="rotate(90 24.9998 131)" fill="#D2D2F2" />
<circle cx="24.9998" cy="152" r="5" transform="rotate(90 24.9998 152)" fill="#D2D2F2" />
<circle cx="24.9998" cy="152" r="5" transform="rotate(90 24.9998 152)" fill="#D2D2F2" />
<circle cx="24.9998" cy="173" r="5" transform="rotate(90 24.9998 173)" fill="#D2D2F2" />
<circle cx="24.9998" cy="173" r="5" transform="rotate(90 24.9998 173)" fill="#D2D2F2" />
<circle cx="24.9998" cy="194" r="5" transform="rotate(90 24.9998 194)" fill="#D2D2F2" />
<circle cx="24.9998" cy="194" r="5" transform="rotate(90 24.9998 194)" fill="#D2D2F2" />
<circle cx="24.9998" cy="215" r="5" transform="rotate(90 24.9998 215)" fill="#D2D2F2" />
<circle cx="24.9998" cy="215" r="5" transform="rotate(90 24.9998 215)" fill="#D2D2F2" />
<circle cx="24.9998" cy="236" r="5" transform="rotate(90 24.9998 236)" fill="#D2D2F2" />
<circle cx="24.9998" cy="236" r="5" transform="rotate(90 24.9998 236)" fill="#D2D2F2" />
<circle cx="4.99976" cy="5" r="5" transform="rotate(90 4.99976 5)" fill="#D2D2F2" />
<circle cx="4.99976" cy="5" r="5" transform="rotate(90 4.99976 5)" fill="#D2D2F2" />
<circle cx="4.99976" cy="26" r="5" transform="rotate(90 4.99976 26)" fill="#D2D2F2" />
<circle cx="4.99976" cy="26" r="5" transform="rotate(90 4.99976 26)" fill="#D2D2F2" />
<circle cx="4.99976" cy="47" r="5" transform="rotate(90 4.99976 47)" fill="#D2D2F2" />
<circle cx="4.99976" cy="47" r="5" transform="rotate(90 4.99976 47)" fill="#D2D2F2" />
<circle cx="4.99976" cy="68" r="5" transform="rotate(90 4.99976 68)" fill="#D2D2F2" />
<circle cx="4.99976" cy="68" r="5" transform="rotate(90 4.99976 68)" fill="#D2D2F2" />
<circle cx="4.99976" cy="89" r="5" transform="rotate(90 4.99976 89)" fill="#D2D2F2" />
<circle cx="4.99976" cy="89" r="5" transform="rotate(90 4.99976 89)" fill="#D2D2F2" />
<circle cx="4.99976" cy="110" r="5" transform="rotate(90 4.99976 110)" fill="#D2D2F2" />
<circle cx="4.99976" cy="110" r="5" transform="rotate(90 4.99976 110)" fill="#D2D2F2" />
<circle cx="4.99976" cy="131" r="5" transform="rotate(90 4.99976 131)" fill="#D2D2F2" />
<circle cx="4.99976" cy="131" r="5" transform="rotate(90 4.99976 131)" fill="#D2D2F2" />
<circle cx="4.99976" cy="152" r="5" transform="rotate(90 4.99976 152)" fill="#D2D2F2" />
<circle cx="4.99976" cy="152" r="5" transform="rotate(90 4.99976 152)" fill="#D2D2F2" />
<circle cx="4.99976" cy="173" r="5" transform="rotate(90 4.99976 173)" fill="#D2D2F2" />
<circle cx="4.99976" cy="173" r="5" transform="rotate(90 4.99976 173)" fill="#D2D2F2" />
<circle cx="4.99976" cy="194" r="5" transform="rotate(90 4.99976 194)" fill="#D2D2F2" />
<circle cx="4.99976" cy="194" r="5" transform="rotate(90 4.99976 194)" fill="#D2D2F2" />
<circle cx="4.99976" cy="215" r="5" transform="rotate(90 4.99976 215)" fill="#D2D2F2" />
<circle cx="4.99976" cy="215" r="5" transform="rotate(90 4.99976 215)" fill="#D2D2F2" />
<circle cx="4.99976" cy="236" r="5" transform="rotate(90 4.99976 236)" fill="#D2D2F2" />
<circle cx="4.99976" cy="236" r="5" transform="rotate(90 4.99976 236)"
fill="#D2D2F2" />
</g>
</svg>
