<svg width="1440" height="525" viewBox="0 0 1440 525" fill="none" xmlns="http://www.w3.org/2000/svg">
<g filter="url(#filter0_d_291_18857)">
<path d="M415 159C173.19 162.079 -17.1446 41.6966 -95 0L-59 521H1587.41L1573 255C1344.01 253.076 1274.36 232.752 1063 121C889 29 717.262 155.151 415 159Z" fill="#D6D6EA"/>
</g>
<defs>
<filter id="filter0_d_291_18857" x="-95" y="0" width="1686.41" height="525" filterUnits="userSpaceOnUse" color-interpolation-filters="sRGB">
<feFlood flood-opacity="0" result="BackgroundImageFix"/>
<feColorMatrix in="SourceAlpha" type="matrix" values="0 0 0 0 0 0 0 0 0 0 0 0 0 0 0 0 0 0 127 0" result="hardAlpha"/>
<feOffset dx="2" dy="2"/>
<feGaussianBlur stdDeviation="1"/>
<feComposite in2="hardAlpha" operator="out"/>
<feColorMatrix type="matrix" values="0 0 0 0 0 0 0 0 0 0 0 0 0 0 0 0 0 0 0.25 0"/>
<feBlend mode="normal" in2="BackgroundImageFix" result="effect1_dropShadow_291_18857"/>
<feBlend mode="normal" in="SourceGraphic" in2="effect1_dropShadow_291_18857" result="shape"/>
</filter>
</defs>
</svg>
