<svg width="152" height="31" viewBox="0 0 152 31" fill="none" xmlns="http://www.w3.org/2000/svg">
<path d="M13.8089 1.33139V17.203H11.5894V3.30375H2.39201V17.203H0.150146V1.33139H13.8089Z" fill="#E08444"/>
<path d="M27.5233 5.8435C28.4526 6.35817 29.1696 7.07902 29.6758 8.00926C30.1819 8.9395 30.4342 10.0088 30.4342 11.2171C30.4342 12.4111 30.1851 13.4724 29.6869 14.4026C29.1888 15.3329 28.4942 16.0537 27.6032 16.5684C26.7122 17.0831 25.6934 17.3388 24.5453 17.3388C23.64 17.3388 22.824 17.1758 22.0991 16.8513C21.3742 16.5268 20.7706 16.0537 20.2868 15.4336V21.6H18.0896V11.2379C18.0896 10.0296 18.3499 8.95548 18.8704 8.01885C19.391 7.08222 20.1239 6.35657 21.0676 5.8419C22.0113 5.32884 23.0955 5.0715 24.3186 5.0715C25.5258 5.0731 26.594 5.33043 27.5233 5.8435ZM26.3337 14.9013C26.9533 14.5465 27.4323 14.0478 27.7724 13.4053C28.1125 12.7627 28.2818 12.0339 28.2818 11.2171C28.2818 10.4004 28.1125 9.67154 27.7724 9.02901C27.4323 8.38647 26.9565 7.88459 26.3449 7.52177C25.7333 7.15894 25.034 6.97673 24.2499 6.97673C23.0572 6.97673 22.0911 7.36673 21.3502 8.14512C20.6109 8.92351 20.2405 9.94006 20.2405 11.1948C20.2405 12.0259 20.4097 12.7627 20.7498 13.4053C21.0899 14.0478 21.561 14.5465 22.1662 14.9013C22.7697 15.2562 23.4643 15.4336 24.2499 15.4336C25.0196 15.4336 25.7142 15.2562 26.3337 14.9013Z" fill="#E08444"/>
<path d="M35.7567 16.5908C34.805 16.0617 34.0609 15.3329 33.526 14.4026C32.9895 13.4724 32.7212 12.4191 32.7212 11.2395C32.7212 10.0599 32.9895 9.00663 33.526 8.0764C34.0625 7.14616 34.805 6.42051 35.7567 5.89945C36.7083 5.37839 37.7798 5.11786 38.9726 5.11786C40.1653 5.11786 41.2336 5.37839 42.1773 5.89945C43.121 6.42051 43.8603 7.14616 44.3968 8.0764C44.9333 9.00663 45.2016 10.0599 45.2016 11.2395C45.2016 12.4191 44.9333 13.4724 44.3968 14.4026C43.8603 15.3329 43.121 16.0617 42.1773 16.5908C41.2336 17.1198 40.1653 17.3836 38.9726 17.3836C37.7798 17.3836 36.7083 17.1198 35.7567 16.5908ZM41.0452 14.9461C41.6567 14.5912 42.1358 14.0926 42.4839 13.45C42.8304 12.8075 43.0044 12.0707 43.0044 11.2395C43.0044 10.4084 42.8304 9.67154 42.4839 9.02901C42.1358 8.38647 41.6567 7.89099 41.0452 7.54415C40.4336 7.19731 39.7422 7.02309 38.9726 7.02309C38.2029 7.02309 37.5115 7.19731 36.8999 7.54415C36.2884 7.89259 35.8046 8.38647 35.4501 9.02901C35.0956 9.67154 34.9184 10.4084 34.9184 11.2395C34.9184 12.0707 35.0956 12.8075 35.4501 13.45C35.8046 14.0926 36.2884 14.5912 36.8999 14.9461C37.5115 15.3009 38.2029 15.4783 38.9726 15.4783C39.7422 15.4783 40.4336 15.3025 41.0452 14.9461Z" fill="#E08444"/>
<path d="M61.873 15.6158C60.6339 16.6899 58.8902 17.286 56.6404 17.4075V21.6479H54.5119V17.4075C52.262 17.286 50.5216 16.6931 49.2904 15.627C48.0593 14.5609 47.4446 13.092 47.4446 11.2171C47.4446 9.35826 48.0561 7.90696 49.2793 6.86324C50.5024 5.81952 52.2461 5.23772 54.5119 5.11785V0.42511H56.6404V5.11785C58.8902 5.23932 60.6339 5.82432 61.873 6.87443C63.1105 7.92454 63.7301 9.37264 63.7301 11.2171C63.7301 13.076 63.1105 14.5433 61.873 15.6158ZM50.8297 14.2332C51.6521 14.9589 52.88 15.3744 54.5103 15.4799V7.04545C52.864 7.15094 51.6329 7.56012 50.8186 8.26978C50.0026 8.98105 49.5954 9.96243 49.5954 11.2171C49.5954 12.5022 50.0074 13.5076 50.8297 14.2332ZM61.5776 11.2171C61.5776 9.94805 61.1624 8.96187 60.3321 8.2586C59.5018 7.55533 58.2707 7.15094 56.6404 7.04545V15.5023C59.9313 15.245 61.5776 13.8176 61.5776 11.2171Z" fill="#E08444"/>
<path d="M70.1975 16.375C68.9217 15.6717 67.9205 14.7047 67.1956 13.4724C66.4706 12.2401 66.1082 10.8543 66.1082 9.3119C66.1082 7.7695 66.4706 6.38373 67.1956 5.15141C67.9205 3.91909 68.9249 2.95209 70.2087 2.24882C71.4925 1.54554 72.9264 1.19391 74.512 1.19391C75.7495 1.19391 76.8832 1.40169 77.9099 1.81726C78.9366 2.23283 79.8132 2.8482 80.5382 3.66495L79.0659 5.09387C77.8732 3.83917 76.385 3.21262 74.603 3.21262C73.4246 3.21262 72.3611 3.47794 71.4094 4.0054C70.4578 4.53445 69.7137 5.26329 69.1787 6.19353C68.6422 7.12377 68.374 8.16269 68.374 9.3103C68.374 10.4595 68.6422 11.4984 69.1787 12.4287C69.7153 13.3589 70.4578 14.0878 71.4094 14.6168C72.3611 15.1459 73.4262 15.4096 74.603 15.4096C76.3706 15.4096 77.8572 14.775 79.0659 13.5044L80.5382 14.9333C79.8132 15.75 78.9334 16.3702 77.8987 16.7922C76.864 17.2157 75.7271 17.4267 74.4896 17.4267C72.904 17.4299 71.4733 17.0783 70.1975 16.375Z" fill="black"/>
<path d="M91.8625 14.0286L93.0409 15.4336C92.5123 16.0681 91.8433 16.5524 91.0369 16.8849C90.229 17.2173 89.3268 17.3836 88.3304 17.3836C87.0626 17.3836 85.9368 17.123 84.9548 16.602C83.9728 16.0809 83.2143 15.3521 82.6778 14.4138C82.1413 13.4772 81.873 12.4191 81.873 11.2395C81.873 10.0759 82.1333 9.02581 82.6539 8.08758C83.1744 7.15095 83.8914 6.42051 84.8063 5.89945C85.7197 5.37839 86.7496 5.11786 87.8977 5.11786C88.9851 5.11786 89.9735 5.364 90.8645 5.8547C91.7555 6.34539 92.4644 7.03747 92.993 7.92935C93.5215 8.82122 93.793 9.84896 93.8089 11.0126L84.273 12.8714C84.5748 13.7026 85.0842 14.3451 85.8027 14.799C86.5197 15.253 87.3851 15.4799 88.3959 15.4799C89.8314 15.4799 90.9858 14.9956 91.8625 14.0286ZM85.8714 7.47542C85.2742 7.82386 84.8111 8.31135 84.479 8.9379C84.1469 9.56445 83.9808 10.2949 83.9808 11.126V11.353L91.6597 9.9017C91.4633 9.02581 91.0257 8.31455 90.3455 7.77111C89.6653 7.22767 88.8509 6.95436 87.8993 6.95436C87.144 6.95436 86.467 7.12858 85.8714 7.47542Z" fill="black"/>
<path d="M106.03 5.88827C106.96 6.40294 107.677 7.12379 108.183 8.05403C108.689 8.98427 108.941 10.0536 108.941 11.2619C108.941 12.4559 108.692 13.5172 108.194 14.4474C107.696 15.3776 107.001 16.0985 106.11 16.6132C105.219 17.1278 104.201 17.3836 103.052 17.3836C102.147 17.3836 101.331 17.2205 100.606 16.8961C99.8812 16.5716 99.2777 16.0985 98.7938 15.4783V21.6448H96.5967V11.2827C96.5967 10.0743 96.8569 9.00025 97.3775 8.06362C97.898 7.12699 98.631 6.40134 99.5747 5.88667C100.518 5.37361 101.603 5.11627 102.826 5.11627C104.033 5.11787 105.101 5.3752 106.03 5.88827ZM104.841 14.9461C105.46 14.5913 105.939 14.0926 106.279 13.45C106.62 12.8075 106.789 12.0787 106.789 11.2619C106.789 10.4452 106.62 9.71631 106.279 9.07377C105.939 8.43124 105.464 7.92936 104.852 7.56653C104.24 7.20371 103.541 7.0215 102.757 7.0215C101.564 7.0215 100.598 7.41149 99.8573 8.18989C99.118 8.96828 98.7475 9.98483 98.7475 11.2395C98.7475 12.0707 98.9168 12.8075 99.2569 13.45C99.597 14.0926 100.068 14.5913 100.673 14.9461C101.277 15.3009 101.971 15.4783 102.757 15.4783C103.527 15.4799 104.221 15.3025 104.841 14.9461Z" fill="black"/>
<path d="M122.848 13.9375C122.848 14.9956 122.452 15.8124 121.658 16.3862C120.866 16.9616 119.683 17.2477 118.113 17.2477H112.338V5.23132H117.91C119.33 5.23132 120.44 5.49985 121.24 6.03689C122.04 6.57393 122.44 7.33315 122.44 8.31613C122.44 8.95067 122.271 9.4989 121.931 9.95923C121.591 10.4211 121.12 10.7712 120.515 11.0141C122.07 11.4057 122.848 12.3807 122.848 13.9375ZM114.468 10.4004H117.73C118.56 10.4004 119.191 10.2501 119.621 9.94644C120.052 9.64435 120.266 9.20641 120.266 8.631C120.266 7.48179 119.419 6.90799 117.728 6.90799H114.466V10.4004H114.468ZM119.994 15.1395C120.448 14.8534 120.674 14.4058 120.674 13.8016C120.674 13.1815 120.467 12.7212 120.052 12.4191C119.636 12.117 118.983 11.9652 118.092 11.9652H114.468V15.5694H117.957C118.862 15.571 119.541 15.4272 119.994 15.1395Z" fill="black"/>
<path d="M137.413 5.23132V17.2477H135.329V15.4799C134.892 16.0841 134.317 16.554 133.608 16.8849C132.898 17.2173 132.12 17.3835 131.275 17.3835C129.674 17.3835 128.414 16.9408 127.493 16.0569C126.571 15.173 126.111 13.8688 126.111 12.1458V5.23132H128.286V11.898C128.286 13.0616 128.566 13.9423 129.124 14.5401C129.683 15.1379 130.483 15.4352 131.526 15.4352C132.674 15.4352 133.579 15.0883 134.244 14.3914C134.908 13.6962 135.24 12.7132 135.24 11.4441V5.23132H137.413Z" fill="black"/>
<path d="M143.834 16.546C142.874 16.017 142.124 15.2881 141.581 14.3579C141.037 13.4276 140.765 12.3743 140.765 11.1948C140.765 10.0152 141.037 8.96186 141.581 8.03163C142.124 7.10139 142.876 6.37574 143.834 5.85468C144.792 5.33362 145.884 5.07309 147.108 5.07309C148.195 5.07309 149.164 5.29206 150.018 5.73001C150.871 6.16796 151.532 6.8041 152 7.63524L150.346 8.70133C149.967 8.12753 149.499 7.69597 148.942 7.40827C148.383 7.12217 147.764 6.97672 147.085 6.97672C146.3 6.97672 145.594 7.15094 144.968 7.49778C144.34 7.84622 143.85 8.34011 143.496 8.98264C143.141 9.62518 142.964 10.362 142.964 11.1932C142.964 12.0403 143.141 12.7851 143.496 13.426C143.85 14.0686 144.34 14.5641 144.968 14.9109C145.594 15.2593 146.3 15.432 147.085 15.432C147.764 15.432 148.383 15.2881 148.942 15.0004C149.501 14.7127 149.969 14.2828 150.346 13.7073L152 14.7511C151.532 15.5822 150.871 16.2215 150.018 16.6675C149.166 17.1134 148.195 17.3372 147.108 17.3372C145.884 17.3388 144.794 17.0751 143.834 16.546Z" fill="black"/>
<path d="M2.19077 27.5251H0.680225V30.5571H0V23.9448H0.680225V26.9113H2.19077L4.42785 23.9448H5.18312L2.72888 27.1574L5.32364 30.5587H4.52206L2.19077 27.5251Z" fill="black"/>
<path d="M12.2423 25.5879V30.5571H11.5717V26.1825H9.19407L9.1286 27.41C9.07751 28.4425 8.95934 29.2369 8.76933 29.7915C8.58091 30.3461 8.24399 30.6227 7.76017 30.6227C7.62764 30.6227 7.46796 30.5971 7.27954 30.5475L7.32585 29.9705C7.43922 29.9961 7.51746 30.0089 7.56217 30.0089C7.82085 30.0089 8.01565 29.889 8.14818 29.6493C8.28072 29.4095 8.36854 29.1138 8.41325 28.7606C8.45636 28.4074 8.49468 27.9422 8.52662 27.362L8.61125 25.5863H12.2423V25.5879Z" fill="black"/>
<path d="M20.3782 25.5879V30.5571H19.7363V29.6509C19.5606 29.9529 19.3179 30.1879 19.0098 30.3541C18.7016 30.5203 18.3487 30.6051 17.9527 30.6051C17.298 30.6051 16.7839 30.4244 16.4102 30.0616C16.0366 29.7004 15.8481 29.1697 15.8481 28.4697V25.5879H16.5188V28.4025C16.5188 28.9252 16.6481 29.3216 16.9052 29.5933C17.1639 29.8634 17.5343 29.9993 18.0182 29.9993C18.5403 29.9993 18.9523 29.8411 19.2541 29.523C19.5558 29.2049 19.7075 28.7622 19.7075 28.1964V25.5895H20.3782V25.5879Z" fill="black"/>
<path d="M24.1431 25.5879H24.8137V27.7888H27.937V25.5879H28.6076V30.5571H27.937V28.3658H24.8137V30.5571H24.1431V25.5879Z" fill="black"/>
<path d="M36.7415 25.5879V30.5571H36.0996V29.6509C35.9239 29.9529 35.6812 30.1879 35.373 30.3541C35.0649 30.5203 34.712 30.6051 34.316 30.6051C33.6613 30.6051 33.1471 30.4244 32.7735 30.0616C32.3998 29.7004 32.2114 29.1697 32.2114 28.4697V25.5879H32.8821V28.4025C32.8821 28.9252 33.0114 29.3216 33.2685 29.5933C33.5272 29.8634 33.8976 29.9993 34.3814 29.9993C34.9036 29.9993 35.3156 29.8411 35.6173 29.523C35.9191 29.2049 36.0708 28.7622 36.0708 28.1964V25.5895H36.7415V25.5879Z" fill="black"/>
<path d="M40.5085 25.5879H41.1792V27.7888H44.3025V25.5879H44.9731V30.5571H44.3025V28.3658H41.1792V30.5571H40.5085V25.5879Z" fill="black"/>
<path d="M52.2481 26.1841H49.4075V30.5587H48.7368V25.5895H52.2481V26.1841Z" fill="black"/>
<path d="M55.6075 30.279C55.2243 30.0616 54.9209 29.7611 54.7021 29.3759C54.4818 28.9923 54.3716 28.5576 54.3716 28.0717C54.3716 27.5874 54.4818 27.1526 54.7021 26.7674C54.9225 26.3838 55.2243 26.0834 55.6075 25.8692C55.9907 25.655 56.4218 25.5479 56.9009 25.5479C57.3783 25.5479 57.8094 25.655 58.1943 25.8692C58.5775 26.0834 58.8793 26.3822 59.0948 26.7674C59.3104 27.1526 59.4206 27.5858 59.4206 28.0717C59.4206 28.5576 59.312 28.9907 59.0948 29.3759C58.8777 29.7595 58.5775 30.0616 58.1943 30.279C57.811 30.4964 57.3799 30.6051 56.9009 30.6051C56.4234 30.6051 55.9923 30.4964 55.6075 30.279ZM57.8494 29.7691C58.1288 29.6093 58.3475 29.3807 58.5056 29.0834C58.6621 28.7878 58.7419 28.4505 58.7419 28.0733C58.7419 27.6961 58.6637 27.3588 58.5056 27.0631C58.3475 26.7674 58.1288 26.5389 57.8494 26.3775C57.5699 26.216 57.2538 26.1361 56.9009 26.1361C56.548 26.1361 56.2318 26.216 55.9524 26.3775C55.673 26.5373 55.4526 26.7659 55.2913 27.0631C55.1316 27.3588 55.0502 27.6961 55.0502 28.0733C55.0502 28.4505 55.1301 28.7878 55.2913 29.0834C55.451 29.3791 55.6714 29.6077 55.9524 29.7691C56.2318 29.929 56.548 30.0105 56.9009 30.0105C57.2538 30.0089 57.5699 29.929 57.8494 29.7691Z" fill="black"/>
<path d="M66.8868 29.2065C66.8868 29.6413 66.7272 29.9753 66.4062 30.2087C66.0853 30.4421 65.6078 30.5587 64.9723 30.5587H62.7161V25.5895H64.9052C65.4721 25.5895 65.9144 25.6998 66.2354 25.9203C66.5563 26.1409 66.716 26.4558 66.716 26.865C66.716 27.1351 66.6425 27.3668 66.494 27.5586C66.3455 27.7504 66.1395 27.8943 65.8761 27.9886C66.5499 28.1452 66.8868 28.5512 66.8868 29.2065ZM63.366 27.7984H64.8573C65.2406 27.7984 65.536 27.7265 65.7404 27.581C65.9447 27.4356 66.0469 27.2246 66.0469 26.9481C66.0469 26.6716 65.9447 26.4638 65.7404 26.3247C65.536 26.1857 65.2422 26.1169 64.8573 26.1169H63.366V27.7984ZM65.9048 29.8203C66.1188 29.6812 66.2258 29.4639 66.2258 29.1682C66.2258 28.8725 66.1284 28.6535 65.9336 28.5113C65.7388 28.369 65.4306 28.2987 65.009 28.2987H63.366V30.0281H64.942C65.3699 30.0281 65.6909 29.9594 65.9048 29.8203Z" fill="black"/>
<path d="M74.823 25.5879V30.5571H74.1811V29.5741C73.9799 29.9082 73.7133 30.1639 73.3843 30.3397C73.0538 30.5156 72.6818 30.6051 72.2666 30.6051C71.8004 30.6051 71.3788 30.498 71.002 30.2838C70.6251 30.0696 70.3281 29.7707 70.1142 29.3855C69.9002 29.0019 69.7932 28.564 69.7932 28.0717C69.7932 27.5794 69.9002 27.143 70.1142 26.7578C70.3281 26.3742 70.6235 26.077 71.002 25.866C71.3804 25.655 71.8004 25.5495 72.2666 25.5495C72.669 25.5495 73.0331 25.6326 73.3572 25.8004C73.6813 25.9667 73.9464 26.2112 74.154 26.5325V25.5879H74.823ZM73.2614 29.7691C73.5408 29.6093 73.7612 29.3807 73.9225 29.0834C74.0821 28.7877 74.1636 28.4505 74.1636 28.0733C74.1636 27.6961 74.0837 27.3588 73.9225 27.0631C73.7628 26.7674 73.5424 26.5389 73.2614 26.3774C72.982 26.2176 72.669 26.1361 72.3225 26.1361C71.9696 26.1361 71.6534 26.216 71.374 26.3774C71.0946 26.5373 70.8742 26.7658 70.7129 27.0631C70.5533 27.3588 70.4718 27.6961 70.4718 28.0733C70.4718 28.4505 70.5517 28.7877 70.7129 29.0834C70.8726 29.3791 71.093 29.6077 71.374 29.7691C71.6534 29.929 71.9696 30.0105 72.3225 30.0105C72.669 30.0089 72.982 29.929 73.2614 29.7691Z" fill="black"/>
<path d="M82.3837 25.5879V30.5571H81.7705V28.914H80.2137H80.0253L78.874 30.5571H78.1475L79.3834 28.8181C79.0001 28.711 78.7031 28.5288 78.4956 28.2699C78.288 28.011 78.1842 27.6849 78.1842 27.2869C78.1842 26.7323 78.3726 26.3103 78.751 26.021C79.1279 25.7317 79.6436 25.5863 80.2983 25.5863H82.3837V25.5879ZM80.2696 28.4121H81.7705V26.1825H80.3175C79.3482 26.1825 78.8644 26.5565 78.8644 27.3061C78.8628 28.0445 79.3323 28.4121 80.2696 28.4121Z" fill="black"/>
<path d="M92.2837 28.3466H91.1516V30.5571H90.481V25.5879H91.1516V27.7696H92.2933L94.0386 25.5879H94.7651L92.8107 27.9966L94.9056 30.5571H94.1136L92.2837 28.3466Z" fill="black"/>
<path d="M98.3997 30.279C98.0165 30.0616 97.7131 29.7611 97.4944 29.3759C97.274 28.9923 97.1638 28.5576 97.1638 28.0717C97.1638 27.5874 97.274 27.1526 97.4944 26.7674C97.7147 26.3838 98.0165 26.0834 98.3997 25.8692C98.7829 25.655 99.2141 25.5479 99.6931 25.5479C100.171 25.5479 100.602 25.655 100.986 25.8692C101.37 26.0834 101.672 26.3822 101.887 26.7674C102.103 27.1526 102.213 27.5858 102.213 28.0717C102.213 28.5576 102.104 28.9907 101.887 29.3759C101.67 29.7595 101.37 30.0616 100.986 30.279C100.603 30.4964 100.172 30.6051 99.6931 30.6051C99.2141 30.6051 98.7829 30.4964 98.3997 30.279ZM100.642 29.7691C100.921 29.6093 101.14 29.3807 101.298 29.0834C101.454 28.7878 101.534 28.4505 101.534 28.0733C101.534 27.6961 101.456 27.3588 101.298 27.0631C101.14 26.7674 100.921 26.5389 100.642 26.3775C100.362 26.216 100.046 26.1361 99.6931 26.1361C99.3402 26.1361 99.0241 26.216 98.7446 26.3775C98.4652 26.5373 98.2448 26.7659 98.0836 27.0631C97.9239 27.3588 97.8424 27.6961 97.8424 28.0733C97.8424 28.4505 97.9223 28.7878 98.0836 29.0834C98.2432 29.3791 98.4636 29.6077 98.7446 29.7691C99.0241 29.929 99.3402 30.0105 99.6931 30.0105C100.044 30.0089 100.361 29.929 100.642 29.7691Z" fill="black"/>
<path d="M111.055 25.5879V30.5571H110.442V26.6268L108.432 29.9513H108.13L106.12 26.6172V30.5571H105.507V25.5879H106.187L108.291 29.1682L110.434 25.5879H111.055Z" fill="black"/>
<path d="M119.276 25.5879V30.5571H118.605V26.1824H115.491V30.5571H114.821V25.5879H119.276Z" fill="black"/>
<path d="M127.554 25.5879V30.5571H126.912V29.5741C126.71 29.9082 126.444 30.1639 126.115 30.3397C125.784 30.5156 125.412 30.6051 124.997 30.6051C124.531 30.6051 124.109 30.498 123.732 30.2838C123.356 30.0696 123.059 29.7707 122.845 29.3855C122.631 29.0019 122.524 28.564 122.524 28.0717C122.524 27.5794 122.631 27.143 122.845 26.7578C123.059 26.3742 123.354 26.077 123.732 25.866C124.111 25.655 124.531 25.5495 124.997 25.5495C125.399 25.5495 125.764 25.6326 126.088 25.8004C126.412 25.9667 126.677 26.2112 126.884 26.5325V25.5879H127.554ZM125.99 29.7691C126.27 29.6093 126.49 29.3807 126.651 29.0834C126.811 28.7877 126.892 28.4505 126.892 28.0733C126.892 27.6961 126.813 27.3588 126.651 27.0631C126.492 26.7674 126.271 26.5389 125.99 26.3774C125.711 26.2176 125.398 26.1361 125.051 26.1361C124.698 26.1361 124.382 26.216 124.103 26.3774C123.823 26.5373 123.603 26.7658 123.442 27.0631C123.282 27.3588 123.201 27.6961 123.201 28.0733C123.201 28.4505 123.281 28.7877 123.442 29.0834C123.602 29.3791 123.822 29.6077 124.103 29.7691C124.382 29.929 124.698 30.0105 125.051 30.0105C125.398 30.0089 125.711 29.929 125.99 29.7691Z" fill="black"/>
<path d="M131.3 25.5879H131.97V27.7888H135.093V25.5879H135.764V30.5571H135.093V28.3658H131.97V30.5571H131.3V25.5879Z" fill="black"/>
<path d="M143.9 25.5879V30.5571H143.258V29.6509C143.082 29.9529 142.839 30.1879 142.531 30.3541C142.223 30.5203 141.87 30.6051 141.474 30.6051C140.819 30.6051 140.305 30.4244 139.932 30.0616C139.558 29.7004 139.37 29.1697 139.37 28.4697V25.5879H140.04V28.4025C140.04 28.9252 140.17 29.3216 140.427 29.5933C140.685 29.8634 141.056 29.9993 141.54 29.9993C142.062 29.9993 142.474 29.8411 142.776 29.523C143.077 29.2049 143.229 28.7622 143.229 28.1964V25.5895H143.9V25.5879Z" fill="black"/>
<path d="M151.478 25.5879V30.5571H150.865V28.914H149.308H149.12L147.968 30.5571H147.242L148.478 28.8181C148.094 28.711 147.797 28.5288 147.59 28.2699C147.382 28.011 147.278 27.6849 147.278 27.2869C147.278 26.7323 147.467 26.3103 147.845 26.021C148.222 25.7317 148.738 25.5863 149.393 25.5863H151.478V25.5879ZM149.364 28.4121H150.865V26.1825H149.412C148.442 26.1825 147.959 26.5565 147.959 27.3061C147.957 28.0445 148.426 28.4121 149.364 28.4121Z" fill="black"/>
</svg>
